…
``` r
get_trajectory(wlts_bdc, 
               latitude = -12, 
               longitude = -54, 
               collections = "mapbiomas_amazonia-v5",
               config = httr::add_headers("x-api-key" = "change-me"))
#> $query
#> NULL
#> 
#> $result
#> # A tibble: 35 × 4
#>    class              collection            date  point_id
#>    <chr>              <chr>                 <chr>    <int>
#>  1 Formação Florestal mapbiomas_amazonia-v5 1985         1
#>  2 Formação Florestal mapbiomas_amazonia-v5 1986         1
#>  3 Formação Florestal mapbiomas_amazonia-v5 1987         1
#>  4 Formação Florestal mapbiomas_amazonia-v5 1988         1
#>  5 Formação Florestal mapbiomas_amazonia-v5 1989         1
#>  6 Formação Florestal mapbiomas_amazonia-v5 1990         1
#>  7 Formação Florestal mapbiomas_amazonia-v5 1991         1
#>  8 Formação Florestal mapbiomas_amazonia-v5 1992         1
#>  9 Formação Florestal mapbiomas_amazonia-v5 1993         1
#> 10 Formação Florestal mapbiomas_amazonia-v5 1994         1
#> # … with 25 more rows
…
``` r
get_trajectory(wlts_bdc, 
               latitude = c(-12, -11.01), 
               longitude = c(-54, -54), 
               collections = "mapbiomas_amazonia-v5",
               config = httr::add_headers("x-api-key" = "change-me"))
#> $query
#> NULL
#> 
#> $result
#> # A tibble: 70 × 4
#>    class              collection            date  point_id
#>    <chr>              <chr>                 <chr>    <int>
#>  1 Formação Florestal mapbiomas_amazonia-v5 1985         1
#>  2 Formação Florestal mapbiomas_amazonia-v5 1986         1
#>  3 Formação Florestal mapbiomas_amazonia-v5 1987         1
#>  4 Formação Florestal mapbiomas_amazonia-v5 1988         1
#>  5 Formação Florestal mapbiomas_amazonia-v5 1989         1
#>  6 Formação Florestal mapbiomas_amazonia-v5 1990         1
#>  7 Formação Florestal mapbiomas_amazonia-v5 1991         1
#>  8 Formação Florestal mapbiomas_amazonia-v5 1992         1
#>  9 Formação Florestal mapbiomas_amazonia-v5 1993         1
#> 10 Formação Florestal mapbiomas_amazonia-v5 1994         1
#> # … with 60 more rows
…
``` r
get_trajectory(wlts_bdc, 
               latitude = c(-12, -11.01), 
               longitude = c(-54, -54), 
               collections = c("mapbiomas_amazonia-v5", "terraclass_amazonia-v2"),
               config = httr::add_headers("x-api-key" = "change-me"))
#> $query
#> NULL
#> 
#> $result
#> # A tibble: 80 × 4
#>    class              collection            date  point_id
#>    <chr>              <chr>                 <chr>    <int>
#>  1 Formação Florestal mapbiomas_amazonia-v5 1985         1
#>  2 Formação Florestal mapbiomas_amazonia-v5 1986         1
#>  3 Formação Florestal mapbiomas_amazonia-v5 1987         1
#>  4 Formação Florestal mapbiomas_amazonia-v5 1988         1
#>  5 Formação Florestal mapbiomas_amazonia-v5 1989         1
#>  6 Formação Florestal mapbiomas_amazonia-v5 1990         1
#>  7 Formação Florestal mapbiomas_amazonia-v5 1991         1
#>  8 Formação Florestal mapbiomas_amazonia-v5 1992         1
#>  9 Formação Florestal mapbiomas_amazonia-v5 1993         1
#> 10 Formação Florestal mapbiomas_amazonia-v5 1994         1
#> # … with 70 more rows
…
